[15:03:56]Journal init
[15:04:46]New rule for sumassoc1
[15:04:46]plus Skeleton
 plus WaveFront
  WAVERULEVARa WaveFront
  WAVERULEVARb Skeleton
 WAVERULEVARc Skeleton

[15:04:46]plus WaveFront
 WAVERULEVARa WaveFront
 plus Skeleton
  WAVERULEVARb Skeleton
  WAVERULEVARc Skeleton

[15:04:46]New rule for sumassoc2
[15:04:46]plus Skeleton
 WAVERULEVARa Skeleton
 plus WaveFront
  WAVERULEVARb Skeleton
  WAVERULEVARc WaveFront

[15:04:46]plus WaveFront
 plus Skeleton
  WAVERULEVARa Skeleton
  WAVERULEVARb Skeleton
 WAVERULEVARc WaveFront

[15:04:46]New rule for zero1
[15:04:46]plus WaveFront
 WAVERULEVARa Skeleton
 0 WaveFront

[15:04:46]WAVERULEVARa Skeleton

[15:04:46]New rule for suminverse1
[15:04:46]plus WaveFront
 0 Skeleton
 minus WaveFront
  0 WaveFront

[15:04:46]0 Skeleton

[15:04:46]New rule for mulassoc1
[15:04:46]times Skeleton
 WAVERULEVARa Skeleton
 times WaveFront
  WAVERULEVARb Skeleton
  WAVERULEVARc WaveFront

[15:04:46]times WaveFront
 times Skeleton
  WAVERULEVARa Skeleton
  WAVERULEVARb Skeleton
 WAVERULEVARc WaveFront

[15:04:46]New rule for mulassoc2
[15:04:46]times Skeleton
 times WaveFront
  WAVERULEVARa WaveFront
  WAVERULEVARb Skeleton
 WAVERULEVARc Skeleton

[15:04:46]times WaveFront
 WAVERULEVARa WaveFront
 times Skeleton
  WAVERULEVARb Skeleton
  WAVERULEVARc Skeleton

[15:04:46]New rule for one1
[15:04:46]times WaveFront
 WAVERULEVARa Skeleton
 1 WaveFront

[15:04:46]WAVERULEVARa Skeleton

[15:04:46]New rule for mulinverse1
[15:04:46]times WaveFront
 1 Skeleton
 power WaveFront
  1 WaveFront
  -1 WaveFront

[15:04:46]1 Skeleton

[15:04:46]New rule for distrib1
[15:04:46]times Skeleton
 WAVERULEVARa Skeleton
 plus WaveFront
  WAVERULEVARb WaveFront
  WAVERULEVARc Skeleton

[15:04:46]plus WaveFront
 times WaveFront
  WAVERULEVARa WaveFront
  WAVERULEVARb WaveFront
 times Skeleton
  WAVERULEVARa Skeleton
  WAVERULEVARc Skeleton

[15:04:46]New rule for distrib1
[15:04:46]times Skeleton
 WAVERULEVARa Skeleton
 plus WaveFront
  WAVERULEVARb Skeleton
  WAVERULEVARc WaveFront

