[23:52:07]Journal init
[23:52:07]New rule for divide1
[23:52:07]divide WaveFront
 1 WaveFront
 1 Skeleton

[23:52:07]1 Skeleton

[23:52:07]New rule for divide1
[23:52:07]divide WaveFront
 1 Skeleton
 1 WaveFront

[23:52:07]1 Skeleton

[23:52:07]New rule for sumassoc1
[23:52:07]plus Skeleton
 plus WaveFront
  WAVERULEVARa WaveFront
  WAVERULEVARb Skeleton
 WAVERULEVARc Skeleton

[23:52:07]plus WaveFront
 WAVERULEVARa WaveFront
 plus Skeleton
  WAVERULEVARb Skeleton
  WAVERULEVARc Skeleton

[23:52:07]New rule for sumassoc2
[23:52:07]plus Skeleton
 WAVERULEVARa Skeleton
 plus WaveFront
  WAVERULEVARb Skeleton
  WAVERULEVARc WaveFront

[23:52:07]plus WaveFront
 plus Skeleton
  WAVERULEVARa Skeleton
  WAVERULEVARb Skeleton
 WAVERULEVARc WaveFront

[23:52:07]New rule for zero1
[23:52:07]plus WaveFront
 WAVERULEVARa Skeleton
 0 WaveFront

[23:52:07]WAVERULEVARa Skeleton

[23:52:07]New rule for suminverse1
[23:52:07]plus WaveFront
 0 Skeleton
 minus WaveFront
  0 WaveFront

[23:52:07]0 Skeleton

[23:52:07]New rule for mulassoc1
[23:52:07]times Skeleton
 WAVERULEVARa Skeleton
 times WaveFront
  WAVERULEVARb Skeleton
  WAVERULEVARc WaveFront

[23:52:07]times WaveFront
 times Skeleton
  WAVERULEVARa Skeleton
  WAVERULEVARb Skeleton
 WAVERULEVARc WaveFront

[23:52:07]New rule for mulassoc2
[23:52:07]times Skeleton
 times WaveFront
  WAVERULEVARa WaveFront
  WAVERULEVARb Skeleton
 WAVERULEVARc Skeleton

[23:52:07]times WaveFront
 WAVERULEVARa WaveFront
 times Skeleton
  WAVERULEVARb Skeleton
  WAVERULEVARc Skeleton

[23:52:07]New rule for one1
[23:52:07]times WaveFront
 WAVERULEVARa Skeleton
 1 WaveFront

[23:52:07]WAVERULEVARa Skeleton

[23:52:07]New rule for mulinverse1
[23:52:07]times WaveFront
 1 Skeleton
 power WaveFront
  1 WaveFront
  -1 WaveFront

[23:52:07]1 Skeleton

[23:52:07]New rule for distrib1
[23:52:07]times Skeleton
 WAVERULEVARa Skeleton
 plus WaveFront
  WAVERULEVARb WaveFront
  WAVERULEVARc Skeleton

[23:52:07]plus WaveFront
 times WaveFront
  WAVERULEVARa WaveFront
  WAVERULEVARb WaveFront
 times Skeleton
  WAVERULEVARa Skeleton
  WAVERULEVARc Skeleton

[23:52:07]New rule for distrib1
[23:52:07]times Skeleton
 WAVERULEVARa Skeleton
 plus WaveFront
  WAVERULEVARb Skeleton
  WAVERULEVARc WaveFront

[23:52:07]plus WaveFront
 times Skeleton
  WAVERULEVARa Skeleton
  WAVERULEVARb Skeleton
 times WaveFront
  WAVERULEVARa WaveFront
  WAVERULEVARc WaveFront

[23:52:08]New rule for distribL1
[23:52:08]times Skeleton
 plus WaveFront
  WAVERULEVARa WaveFront
  WAVERULEVARb Skeleton
 WAVERULEVARc Skeleton

[23:52:08]plus WaveFront
 times WaveFront
  WAVERULEVARa WaveFront
  WAVERULEVARc WaveFront
 times Skeleton
  WAVERULEVARb Skeleton
  WAVERULEVARc Skeleton

[23:52:08]New rule for distribL1
[23:52:08]times Skeleton
 plus WaveFront
  WAVERULEVARa Skeleton
  WAVERULEVARb WaveFront
 WAVERULEVARc Skeleton

[23:52:08]plus WaveFront
 times Skeleton
  WAVERULEVARa Skeleton
  WAVERULEVARc Skeleton
 times WaveFront
  WAVERULEVARb WaveFront
  WAVERULEVARc WaveFront

[23:52:08]New rule for eqL1
[23:52:08]eq Skeleton
 plus WaveFront
  WAVERULEVARa Skeleton
  WAVERULEVARb WaveFront
 plus WaveFront
  WAVERULEVARb WaveFront
  WAVERULEVARa Skeleton

[23:52:08]eq Skeleton
 WAVERULEVARa Skeleton
 WAVERULEVARa Skeleton

[23:52:08]New rule for eqR1
[23:52:08]eq Skeleton
 plus WaveFront
  WAVERULEVARa WaveFront
  WAVERULEVARb Skeleton
 plus WaveFront
  WAVERULEVARb Skeleton
  WAVERULEVARa WaveFront

[23:52:08]eq Skeleton
 WAVERULEVARb Skeleton
 WAVERULEVARb Skeleton

[23:52:08]New rule for eqzero1
[23:52:08]eq WaveFront
 0 WaveFront
 0 Skeleton

[23:52:08]0 Skeleton

[23:52:08]New rule for eqzero1
[23:52:08]eq WaveFront
 0 Skeleton
 0 WaveFront

[23:52:08]0 Skeleton

[23:52:08]New rule for powertimes2
[23:52:08]power Skeleton
 WAVERULEVARa Skeleton
 plus WaveFront
  WAVERULEVARb WaveFront
  WAVERULEVARc Skeleton

[23:52:08]times WaveFront
 power WaveFront
  WAVERULEVARa WaveFront
  WAVERULEVARb WaveFront
 power Skeleton
  WAVERULEVARa Skeleton
  WAVERULEVARc Skeleton

[23:52:08]New rule for powertimes2
[23:52:08]power Skeleton
 WAVERULEVARa Skeleton
 plus WaveFront
  WAVERULEVARb Skeleton
  WAVERULEVARc WaveFront

[23:52:08]times WaveFront
 power Skeleton
  WAVERULEVARa Skeleton
  WAVERULEVARb Skeleton
 power WaveFront
  WAVERULEVARa WaveFront
  WAVERULEVARc WaveFront

[23:52:08]New rule for powerdivide2
[23:52:08]power Skeleton
 WAVERULEVARa Skeleton
 minus WaveFront
  WAVERULEVARb WaveFront
  WAVERULEVARc Skeleton

[23:52:08]divide WaveFront
 power WaveFront
  WAVERULEVARa WaveFront
  WAVERULEVARb WaveFront
 power Skeleton
  WAVERULEVARa Skeleton
  WAVERULEVARc Skeleton

[23:52:08]New rule for powerdivide2
[23:52:08]power Skeleton
 WAVERULEVARa Skeleton
 minus WaveFront
  WAVERULEVARb Skeleton
  WAVERULEVARc WaveFront

[23:52:08]divide WaveFront
 power Skeleton
  WAVERULEVARa Skeleton
  WAVERULEVARb Skeleton
 power WaveFront
  WAVERULEVARa WaveFront
  WAVERULEVARc WaveFront

[23:52:08]New rule for cosoddity1
[23:52:08]cos Skeleton
 minus WaveFront
  WAVERULEVARa WaveFront

[23:52:08]cos Skeleton
 WAVERULEVARa WaveFront

[23:52:08]New rule for log1
[23:52:08]power WaveFront
 WAVERULEVARb Skeleton
 log WaveFront
  WAVERULEVARb WaveFront
  WAVERULEVARb WaveFront

[23:52:08]WAVERULEVARb Skeleton

[23:52:08]New rule for log1
[23:52:08]power WaveFront
 WAVERULEVARa Skeleton
 log WaveFront
  WAVERULEVARa WaveFront
  WAVERULEVARa WaveFront

[23:52:08]WAVERULEVARa Skeleton

[23:52:08]New rule for logtimes1
[23:52:08]log Skeleton
 WAVERULEVARa Skeleton
 times WaveFront
  WAVERULEVARb WaveFront
  WAVERULEVARc Skeleton

[23:52:08]plus WaveFront
 log WaveFront
  WAVERULEVARa WaveFront
  WAVERULEVARb WaveFront
 log Skeleton
  WAVERULEVARa Skeleton
  WAVERULEVARc Skeleton

[23:52:08]New rule for logtimes1
[23:52:08]log Skeleton
 WAVERULEVARa Skeleton
 times WaveFront
  WAVERULEVARb Skeleton
  WAVERULEVARc WaveFront

[23:52:08]plus WaveFront
 log Skeleton
  WAVERULEVARa Skeleton
  WAVERULEVARb Skeleton
 log WaveFront
  WAVERULEVARa WaveFront
  WAVERULEVARc WaveFront

[23:52:08]New rule for logpower1
[23:52:08]log Skeleton
 WAVERULEVARa Skeleton
 power WaveFront
  WAVERULEVARb Skeleton
  WAVERULEVARc WaveFront

[23:52:08]times WaveFront
 WAVERULEVARc WaveFront
 log Skeleton
  WAVERULEVARa Skeleton
  WAVERULEVARb Skeleton

[23:52:35]Journal init
[23:52:35]New rule for divide1
[23:52:35]divide WaveFront
 1 WaveFront
 1 Skeleton

[23:52:35]1 Skeleton

[23:52:35]New rule for divide1
[23:52:35]divide WaveFront
 1 Skeleton
 1 WaveFront

[23:52:35]1 Skeleton

[23:52:35]New rule for sumassoc1
[23:52:35]plus Skeleton
 plus WaveFront
  WAVERULEVARa WaveFront
  WAVERULEVARb Skeleton
 WAVERULEVARc Skeleton

[23:52:35]plus WaveFront
 WAVERULEVARa WaveFront
 plus Skeleton
  WAVERULEVARb Skeleton
  WAVERULEVARc Skeleton

[23:52:35]New rule for sumassoc2
[23:52:35]plus Skeleton
 WAVERULEVARa Skeleton
 plus WaveFront
  WAVERULEVARb Skeleton
  WAVERULEVARc WaveFront

[23:52:35]plus WaveFront
 plus Skeleton
  WAVERULEVARa Skeleton
  WAVERULEVARb Skeleton
 WAVERULEVARc WaveFront

[23:52:35]New rule for zero1
[23:52:35]plus WaveFront
 WAVERULEVARa Skeleton
 0 WaveFront

[23:52:35]WAVERULEVARa Skeleton

[23:52:35]New rule for suminverse1
[23:52:35]plus WaveFront
 0 Skeleton
 minus WaveFront
  0 WaveFront

[23:52:35]0 Skeleton

[23:52:35]New rule for mulassoc1
[23:52:35]times Skeleton
 WAVERULEVARa Skeleton
 times WaveFront
  WAVERULEVARb Skeleton
  WAVERULEVARc WaveFront

[23:52:35]times WaveFront
 times Skeleton
  WAVERULEVARa Skeleton
  WAVERULEVARb Skeleton
 WAVERULEVARc WaveFront

[23:52:35]New rule for mulassoc2
[23:52:35]times Skeleton
 times WaveFront
  WAVERULEVARa WaveFront
  WAVERULEVARb Skeleton
 WAVERULEVARc Skeleton

[23:52:35]times WaveFront
 WAVERULEVARa WaveFront
 times Skeleton
  WAVERULEVARb Skeleton
  WAVERULEVARc Skeleton

[23:52:35]New rule for one1
[23:52:35]times WaveFront
 WAVERULEVARa Skeleton
 1 WaveFront

[23:52:35]WAVERULEVARa Skeleton

[23:52:35]New rule for mulinverse1
[23:52:35]times WaveFront
 1 Skeleton
 power WaveFront
  1 WaveFront
  -1 WaveFront

[23:52:35]1 Skeleton

[23:52:35]New rule for distrib1
[23:52:35]times Skeleton
 WAVERULEVARa Skeleton
 plus WaveFront
  WAVERULEVARb WaveFront
  WAVERULEVARc Skeleton

[23:52:35]plus WaveFront
 times WaveFront
  WAVERULEVARa WaveFront
  WAVERULEVARb WaveFront
 times Skeleton
  WAVERULEVARa Skeleton
  WAVERULEVARc Skeleton

[23:52:35]New rule for distrib1
[23:52:35]times Skeleton
 WAVERULEVARa Skeleton
 plus WaveFront
  WAVERULEVARb Skeleton
  WAVERULEVARc WaveFront

[23:52:35]plus WaveFront
 times Skeleton
  WAVERULEVARa Skeleton
  WAVERULEVARb Skeleton
 times WaveFront
  WAVERULEVARa WaveFront
  WAVERULEVARc WaveFront

[23:52:35]New rule for distribL1
[23:52:35]times Skeleton
 plus WaveFront
  WAVERULEVARa WaveFront
  WAVERULEVARb Skeleton
 WAVERULEVARc Skeleton

[23:52:35]plus WaveFront
 times WaveFront
  WAVERULEVARa WaveFront
  WAVERULEVARc WaveFront
 times Skeleton
  WAVERULEVARb Skeleton
  WAVERULEVARc Skeleton

[23:52:35]New rule for distribL1
[23:52:35]times Skeleton
 plus WaveFront
  WAVERULEVARa Skeleton
  WAVERULEVARb WaveFront
 WAVERULEVARc Skeleton

[23:52:35]plus WaveFront
 times Skeleton
  WAVERULEVARa Skeleton
  WAVERULEVARc Skeleton
 times WaveFront
  WAVERULEVARb WaveFront
  WAVERULEVARc WaveFront

[23:52:35]New rule for eqL1
[23:52:35]eq Skeleton
 plus WaveFront
  WAVERULEVARa Skeleton
  WAVERULEVARb WaveFront
 plus WaveFront
  WAVERULEVARb WaveFront
  WAVERULEVARa Skeleton

[23:52:35]eq Skeleton
 WAVERULEVARa Skeleton
 WAVERULEVARa Skeleton

[23:52:35]New rule for eqR1
[23:52:35]eq Skeleton
 plus WaveFront
  WAVERULEVARa WaveFront
  WAVERULEVARb Skeleton
 plus WaveFront
  WAVERULEVARb Skeleton
  WAVERULEVARa WaveFront

[23:52:35]eq Skeleton
 WAVERULEVARb Skeleton
 WAVERULEVARb Skeleton

[23:52:35]New rule for eqzero1
[23:52:35]eq WaveFront
 0 WaveFront
 0 Skeleton

[23:52:35]0 Skeleton

[23:52:35]New rule for eqzero1
[23:52:35]eq WaveFront
 0 Skeleton
 0 WaveFront

[23:52:35]0 Skeleton

[23:52:35]New rule for powertimes2
[23:52:35]power Skeleton
 WAVERULEVARa Skeleton
 plus WaveFront
  WAVERULEVARb WaveFront
  WAVERULEVARc Skeleton

[23:52:35]times WaveFront
 power WaveFront
  WAVERULEVARa WaveFront
  WAVERULEVARb WaveFront
 power Skeleton
  WAVERULEVARa Skeleton
  WAVERULEVARc Skeleton

[23:52:35]New rule for powertimes2
[23:52:35]power Skeleton
 WAVERULEVARa Skeleton
 plus WaveFront
  WAVERULEVARb Skeleton
  WAVERULEVARc WaveFront

[23:52:35]times WaveFront
 power Skeleton
  WAVERULEVARa Skeleton
  WAVERULEVARb Skeleton
 power WaveFront
  WAVERULEVARa WaveFront
  WAVERULEVARc WaveFront

[23:52:35]New rule for powerdivide2
[23:52:35]power Skeleton
 WAVERULEVARa Skeleton
 minus WaveFront
  WAVERULEVARb WaveFront
  WAVERULEVARc Skeleton

[23:52:35]divide WaveFront
 power WaveFront
  WAVERULEVARa WaveFront
  WAVERULEVARb WaveFront
 power Skeleton
  WAVERULEVARa Skeleton
  WAVERULEVARc Skeleton

[23:52:35]New rule for powerdivide2
[23:52:35]power Skeleton
 WAVERULEVARa Skeleton
 minus WaveFront
  WAVERULEVARb Skeleton
  WAVERULEVARc WaveFront

[23:52:35]divide WaveFront
 power Skeleton
  WAVERULEVARa Skeleton
  WAVERULEVARb Skeleton
 power WaveFront
  WAVERULEVARa WaveFront
  WAVERULEVARc WaveFront

[23:52:35]New rule for cosoddity1
[23:52:35]cos Skeleton
 minus WaveFront
  WAVERULEVARa WaveFront

[23:52:35]cos Skeleton
 WAVERULEVARa WaveFront

[23:52:35]New rule for log1
[23:52:35]power WaveFront
 WAVERULEVARb Skeleton
 log WaveFront
  WAVERULEVARb WaveFront
  WAVERULEVARb WaveFront

[23:52:35]WAVERULEVARb Skeleton

[23:52:35]New rule for log1
[23:52:35]power WaveFront
 WAVERULEVARa Skeleton
 log WaveFront
  WAVERULEVARa WaveFront
  WAVERULEVARa WaveFront

[23:52:35]WAVERULEVARa Skeleton

[23:52:35]New rule for logtimes1
[23:52:35]log Skeleton
 WAVERULEVARa Skeleton
 times WaveFront
  WAVERULEVARb WaveFront
  WAVERULEVARc Skeleton

[23:52:35]plus WaveFront
 log WaveFront
  WAVERULEVARa WaveFront
  WAVERULEVARb WaveFront
 log Skeleton
  WAVERULEVARa Skeleton
  WAVERULEVARc Skeleton

[23:52:35]New rule for logtimes1
[23:52:35]log Skeleton
 WAVERULEVARa Skeleton
 times WaveFront
  WAVERULEVARb Skeleton
  WAVERULEVARc WaveFront

[23:52:35]plus WaveFront
 log Skeleton
  WAVERULEVARa Skeleton
  WAVERULEVARb Skeleton
 log WaveFront
  WAVERULEVARa WaveFront
  WAVERULEVARc WaveFront

[23:52:35]New rule for logpower1
[23:52:35]log Skeleton
 WAVERULEVARa Skeleton
 power WaveFront
  WAVERULEVARb Skeleton
  WAVERULEVARc WaveFront

[23:52:35]times WaveFront
 WAVERULEVARc WaveFront
 log Skeleton
  WAVERULEVARa Skeleton
  WAVERULEVARb Skeleton

[23:52:42]Journal init
[23:54:14]New rule for divide1
[23:54:14]divide WaveFront
 1 WaveFront
 1 Skeleton

[23:54:14]1 Skeleton

[23:54:14]New rule for divide1
[23:54:14]divide WaveFront
 1 Skeleton
 1 WaveFront

[23:54:14]1 Skeleton

[23:54:14]New rule for sumassoc1
[23:54:14]plus Skeleton
 plus WaveFront
  WAVERULEVARa WaveFront
  WAVERULEVARb Skeleton
 WAVERULEVARc Skeleton

[23:54:14]plus WaveFront
 WAVERULEVARa WaveFront
 plus Skeleton
  WAVERULEVARb Skeleton
  WAVERULEVARc Skeleton

[23:54:14]New rule for sumassoc2
[23:54:14]plus Skeleton
 WAVERULEVARa Skeleton
 plus WaveFront
  WAVERULEVARb Skeleton
  WAVERULEVARc WaveFront

[23:54:14]plus WaveFront
 plus Skeleton
  WAVERULEVARa Skeleton
  WAVERULEVARb Skeleton
 WAVERULEVARc WaveFront

[23:54:14]New rule for zero1
[23:54:14]plus WaveFront
 WAVERULEVARa Skeleton
 0 WaveFront

[23:54:14]WAVERULEVARa Skeleton

[23:54:14]New rule for suminverse1
[23:54:14]plus WaveFront
 0 Skeleton
 minus WaveFront
  0 WaveFront

[23:54:14]0 Skeleton

[23:54:14]New rule for mulassoc1
[23:54:14]times Skeleton
 WAVERULEVARa Skeleton
 times WaveFront
  WAVERULEVARb Skeleton
  WAVERULEVARc WaveFront

[23:54:14]times WaveFront
 times Skeleton
  WAVERULEVARa Skeleton
  WAVERULEVARb Skeleton
 WAVERULEVARc WaveFront

[23:54:14]New rule for mulassoc2
[23:54:14]times Skeleton
 times WaveFront
  WAVERULEVARa WaveFront
  WAVERULEVARb Skeleton
 WAVERULEVARc Skeleton

[23:54:14]times WaveFront
 WAVERULEVARa WaveFront
 times Skeleton
  WAVERULEVARb Skeleton
  WAVERULEVARc Skeleton

[23:54:14]New rule for one1
[23:54:14]times WaveFront
 WAVERULEVARa Skeleton
 1 WaveFront

[23:54:14]WAVERULEVARa Skeleton

[23:54:14]New rule for mulinverse1
[23:54:14]times WaveFront
 1 Skeleton
 power WaveFront
  1 WaveFront
  -1 WaveFront

[23:54:14]1 Skeleton

[23:54:14]New rule for distrib1
[23:54:14]times Skeleton
 WAVERULEVARa Skeleton
 plus WaveFront
  WAVERULEVARb WaveFront
  WAVERULEVARc Skeleton

[23:54:14]plus WaveFront
 times WaveFront
  WAVERULEVARa WaveFront
  WAVERULEVARb WaveFront
 times Skeleton
  WAVERULEVARa Skeleton
  WAVERULEVARc Skeleton

[23:54:14]New rule for distrib1
[23:54:14]times Skeleton
 WAVERULEVARa Skeleton
 plus WaveFront
  WAVERULEVARb Skeleton
  WAVERULEVARc WaveFront

[23:54:14]plus WaveFront
 times Skeleton
  WAVERULEVARa Skeleton
  WAVERULEVARb Skeleton
 times WaveFront
  WAVERULEVARa WaveFront
  WAVERULEVARc WaveFront

[23:54:14]New rule for distribL1
[23:54:14]times Skeleton
 plus WaveFront
  WAVERULEVARa WaveFront
  WAVERULEVARb Skeleton
 WAVERULEVARc Skeleton

[23:54:14]plus WaveFront
 times WaveFront
  WAVERULEVARa WaveFront
  WAVERULEVARc WaveFront
 times Skeleton
  WAVERULEVARb Skeleton
  WAVERULEVARc Skeleton

[23:54:14]New rule for distribL1
[23:54:14]times Skeleton
 plus WaveFront
  WAVERULEVARa Skeleton
  WAVERULEVARb WaveFront
 WAVERULEVARc Skeleton

[23:54:14]plus WaveFront
 times Skeleton
  WAVERULEVARa Skeleton
  WAVERULEVARc Skeleton
 times WaveFront
  WAVERULEVARb WaveFront
  WAVERULEVARc WaveFront

[23:54:14]New rule for eqL1
[23:54:14]eq Skeleton
 plus WaveFront
  WAVERULEVARa Skeleton
  WAVERULEVARb WaveFront
 plus WaveFront
  WAVERULEVARb WaveFront
  WAVERULEVARa Skeleton

[23:54:14]eq Skeleton
 WAVERULEVARa Skeleton
 WAVERULEVARa Skeleton

[23:54:14]New rule for eqR1
[23:54:14]eq Skeleton
 plus WaveFront
  WAVERULEVARa WaveFront
  WAVERULEVARb Skeleton
 plus WaveFront
  WAVERULEVARb Skeleton
  WAVERULEVARa WaveFront

[23:54:14]eq Skeleton
 WAVERULEVARb Skeleton
 WAVERULEVARb Skeleton

[23:54:14]New rule for eqzero1
[23:54:14]eq WaveFront
 0 WaveFront
 0 Skeleton

[23:54:14]0 Skeleton

[23:54:14]New rule for eqzero1
[23:54:14]eq WaveFront
 0 Skeleton
 0 WaveFront

[23:54:14]0 Skeleton

[23:54:14]New rule for powertimes2
[23:54:14]power Skeleton
 WAVERULEVARa Skeleton
 plus WaveFront
  WAVERULEVARb WaveFront
  WAVERULEVARc Skeleton

[23:54:14]times WaveFront
 power WaveFront
  WAVERULEVARa WaveFront
  WAVERULEVARb WaveFront
 power Skeleton
  WAVERULEVARa Skeleton
  WAVERULEVARc Skeleton

[23:54:14]New rule for powertimes2
[23:54:14]power Skeleton
 WAVERULEVARa Skeleton
 plus WaveFront
  WAVERULEVARb Skeleton
  WAVERULEVARc WaveFront

[23:54:14]times WaveFront
 power Skeleton
  WAVERULEVARa Skeleton
  WAVERULEVARb Skeleton
 power WaveFront
  WAVERULEVARa WaveFront
  WAVERULEVARc WaveFront

[23:54:14]New rule for powerdivide2
[23:54:14]power Skeleton
 WAVERULEVARa Skeleton
 minus WaveFront
  WAVERULEVARb WaveFront
  WAVERULEVARc Skeleton

[23:54:14]divide WaveFront
 power WaveFront
  WAVERULEVARa WaveFront
  WAVERULEVARb WaveFront
 power Skeleton
  WAVERULEVARa Skeleton
  WAVERULEVARc Skeleton

[23:54:14]New rule for powerdivide2
[23:54:14]power Skeleton
 WAVERULEVARa Skeleton
 minus WaveFront
  WAVERULEVARb Skeleton
  WAVERULEVARc WaveFront

[23:54:14]divide WaveFront
 power Skeleton
  WAVERULEVARa Skeleton
  WAVERULEVARb Skeleton
 power WaveFront
  WAVERULEVARa WaveFront
  WAVERULEVARc WaveFront

[23:54:14]New rule for cosoddity1
[23:54:14]cos Skeleton
 minus WaveFront
  WAVERULEVARa WaveFront

[23:54:14]cos Skeleton
 WAVERULEVARa WaveFront

[23:54:14]New rule for log1
[23:54:14]power WaveFront
 WAVERULEVARb Skeleton
 log WaveFront
  WAVERULEVARb WaveFront
  WAVERULEVARb WaveFront

[23:54:14]WAVERULEVARb Skeleton

[23:54:14]New rule for log1
[23:54:14]power WaveFront
 WAVERULEVARa Skeleton
 log WaveFront
  WAVERULEVARa WaveFront
  WAVERULEVARa WaveFront

[23:54:14]WAVERULEVARa Skeleton

[23:54:14]New rule for logtimes1
[23:54:14]log Skeleton
 WAVERULEVARa Skeleton
 times WaveFront
  WAVERULEVARb WaveFront
  WAVERULEVARc Skeleton

[23:54:14]plus WaveFront
 log WaveFront
  WAVERULEVARa WaveFront
  WAVERULEVARb WaveFront
 log Skeleton
  WAVERULEVARa Skeleton
  WAVERULEVARc Skeleton

[23:54:14]New rule for logtimes1
[23:54:14]log Skeleton
 WAVERULEVARa Skeleton
 times WaveFront
  WAVERULEVARb Skeleton
  WAVERULEVARc WaveFront

[23:54:14]plus WaveFront
 log Skeleton
  WAVERULEVARa Skeleton
  WAVERULEVARb Skeleton
 log WaveFront
  WAVERULEVARa WaveFront
  WAVERULEVARc WaveFront

[23:54:14]New rule for logpower1
[23:54:14]log Skeleton
 WAVERULEVARa Skeleton
 power WaveFront
  WAVERULEVARb Skeleton
  WAVERULEVARc WaveFront

[23:54:14]times WaveFront
 WAVERULEVARc WaveFront
 log Skeleton
  WAVERULEVARa Skeleton
  WAVERULEVARb Skeleton

