[15:46:43]Journal init
[15:48:32]New rule for divide1
[15:48:32]divide WaveFront
 1 WaveFront
 1 Skeleton

[15:48:32]1 Skeleton

[15:48:32]New rule for divide1
[15:48:32]divide WaveFront
 1 Skeleton
 1 WaveFront

[15:48:32]1 Skeleton

[15:48:32]New rule for sumassoc1
[15:48:32]plus Skeleton
 plus WaveFront
  WAVERULEVARa WaveFront
  WAVERULEVARb Skeleton
 WAVERULEVARc Skeleton

[15:48:32]plus WaveFront
 WAVERULEVARa WaveFront
 plus Skeleton
  WAVERULEVARb Skeleton
  WAVERULEVARc Skeleton

[15:48:32]New rule for sumassoc2
[15:48:32]plus Skeleton
 WAVERULEVARa Skeleton
 plus WaveFront
  WAVERULEVARb Skeleton
  WAVERULEVARc WaveFront

[15:48:32]plus WaveFront
 plus Skeleton
  WAVERULEVARa Skeleton
  WAVERULEVARb Skeleton
 WAVERULEVARc WaveFront

[15:48:32]New rule for zero1
[15:48:32]plus WaveFront
 WAVERULEVARa Skeleton
 0 WaveFront

[15:48:32]WAVERULEVARa Skeleton

[15:48:32]New rule for suminverse1
[15:48:32]plus WaveFront
 0 Skeleton
 minus WaveFront
  0 WaveFront

[15:48:32]0 Skeleton

[15:48:32]New rule for mulassoc1
[15:48:32]times Skeleton
 WAVERULEVARa Skeleton
 times WaveFront
  WAVERULEVARb Skeleton
  WAVERULEVARc WaveFront

[15:48:32]times WaveFront
 times Skeleton
  WAVERULEVARa Skeleton
  WAVERULEVARb Skeleton
 WAVERULEVARc WaveFront

[15:48:32]New rule for mulassoc2
[15:48:32]times Skeleton
 times WaveFront
  WAVERULEVARa WaveFront
  WAVERULEVARb Skeleton
 WAVERULEVARc Skeleton

[15:48:32]times WaveFront
 WAVERULEVARa WaveFront
 times Skeleton
  WAVERULEVARb Skeleton
  WAVERULEVARc Skeleton

[15:48:32]New rule for one1
[15:48:32]times WaveFront
 WAVERULEVARa Skeleton
 1 WaveFront

[15:48:32]WAVERULEVARa Skeleton

[15:48:32]New rule for mulinverse1
[15:48:32]times WaveFront
 1 Skeleton
 power WaveFront
  1 WaveFront
  -1 WaveFront

[15:48:32]1 Skeleton

[15:48:33]New rule for distrib1
[15:48:33]times Skeleton
 WAVERULEVARa Skeleton
 plus WaveFront
  WAVERULEVARb WaveFront
  WAVERULEVARc Skeleton

[15:48:33]plus WaveFront
 times WaveFront
  WAVERULEVARa WaveFront
  WAVERULEVARb WaveFront
 times Skeleton
  WAVERULEVARa Skeleton
  WAVERULEVARc Skeleton

[15:48:33]New rule for distrib1
[15:48:33]times Skeleton
 WAVERULEVARa Skeleton
 plus WaveFront
  WAVERULEVARb Skeleton
  WAVERULEVARc WaveFront

[15:48:33]plus WaveFront
 times Skeleton
  WAVERULEVARa Skeleton
  WAVERULEVARb Skeleton
 times WaveFront
  WAVERULEVARa WaveFront
  WAVERULEVARc WaveFront

[15:48:33]New rule for distribL1
[15:48:33]times Skeleton
 plus WaveFront
  WAVERULEVARa WaveFront
  WAVERULEVARb Skeleton
 WAVERULEVARc Skeleton

[15:48:33]plus WaveFront
 times WaveFront
  WAVERULEVARa WaveFront
  WAVERULEVARc WaveFront
 times Skeleton
  WAVERULEVARb Skeleton
  WAVERULEVARc Skeleton

[15:48:33]New rule for distribL1
[15:48:33]times Skeleton
 plus WaveFront
  WAVERULEVARa Skeleton
  WAVERULEVARb WaveFront
 WAVERULEVARc Skeleton

[15:48:33]plus WaveFront
 times Skeleton
  WAVERULEVARa Skeleton
  WAVERULEVARc Skeleton
 times WaveFront
  WAVERULEVARb WaveFront
  WAVERULEVARc WaveFront

[15:48:33]New rule for eqL1
[15:48:33]eq Skeleton
 plus WaveFront
  WAVERULEVARa Skeleton
  WAVERULEVARb WaveFront
 plus WaveFront
  WAVERULEVARb WaveFront
  WAVERULEVARa Skeleton

[15:48:33]eq Skeleton
 WAVERULEVARa Skeleton
 WAVERULEVARa Skeleton

[15:48:33]New rule for eqR1
[15:48:33]eq Skeleton
 plus WaveFront
  WAVERULEVARa WaveFront
  WAVERULEVARb Skeleton
 plus WaveFront
  WAVERULEVARb Skeleton
  WAVERULEVARa WaveFront

[15:48:33]eq Skeleton
 WAVERULEVARb Skeleton
 WAVERULEVARb Skeleton

[15:48:33]New rule for eqzero1
[15:48:33]eq WaveFront
 0 WaveFront
 0 Skeleton

[15:48:33]0 Skeleton

[15:48:33]New rule for eqzero1
[15:48:33]eq WaveFront
 0 Skeleton
 0 WaveFront

[15:48:33]0 Skeleton

[15:48:33]New rule for powertimes2
[15:48:33]power Skeleton
 WAVERULEVARa Skeleton
 plus WaveFront
  WAVERULEVARb WaveFront
  WAVERULEVARc Skeleton

[15:48:33]times WaveFront
 power WaveFront
  WAVERULEVARa WaveFront
  WAVERULEVARb WaveFront
 power Skeleton
  WAVERULEVARa Skeleton
  WAVERULEVARc Skeleton

[15:48:33]New rule for powertimes2
[15:48:33]power Skeleton
 WAVERULEVARa Skeleton
 plus WaveFront
  WAVERULEVARb Skeleton
  WAVERULEVARc WaveFront

[15:48:33]times WaveFront
 power Skeleton
  WAVERULEVARa Skeleton
  WAVERULEVARb Skeleton
 power WaveFront
  WAVERULEVARa WaveFront
  WAVERULEVARc WaveFront

[15:48:33]New rule for powerdivide2
[15:48:33]power Skeleton
 WAVERULEVARa Skeleton
 minus WaveFront
  WAVERULEVARb WaveFront
  WAVERULEVARc Skeleton

[15:48:33]divide WaveFront
 power WaveFront
  WAVERULEVARa WaveFront
  WAVERULEVARb WaveFront
 power Skeleton
  WAVERULEVARa Skeleton
  WAVERULEVARc Skeleton

[15:48:33]New rule for powerdivide2
[15:48:33]power Skeleton
 WAVERULEVARa Skeleton
 minus WaveFront
  WAVERULEVARb Skeleton
  WAVERULEVARc WaveFront

[15:48:33]divide WaveFront
 power Skeleton
  WAVERULEVARa Skeleton
  WAVERULEVARb Skeleton
 power WaveFront
  WAVERULEVARa WaveFront
  WAVERULEVARc WaveFront

[15:48:33]New rule for cosoddity1
[15:48:33]cos Skeleton
 minus WaveFront
  WAVERULEVARa WaveFront

[15:48:33]cos Skeleton
 WAVERULEVARa WaveFront

[15:48:33]New rule for log1
[15:48:33]power WaveFront
 WAVERULEVARb Skeleton
 log WaveFront
  WAVERULEVARb WaveFront
  WAVERULEVARb WaveFront

[15:48:33]WAVERULEVARb Skeleton

[15:48:33]New rule for log1
[15:48:33]power WaveFront
 WAVERULEVARa Skeleton
 log WaveFront
  WAVERULEVARa WaveFront
  WAVERULEVARa WaveFront

[15:48:33]WAVERULEVARa Skeleton

[15:48:33]New rule for logtimes1
[15:48:33]log Skeleton
 WAVERULEVARa Skeleton
 times WaveFront
  WAVERULEVARb WaveFront
  WAVERULEVARc Skeleton

[15:48:33]plus WaveFront
 log WaveFront
  WAVERULEVARa WaveFront
  WAVERULEVARb WaveFront
 log Skeleton
  WAVERULEVARa Skeleton
  WAVERULEVARc Skeleton

[15:48:33]New rule for logtimes1
[15:48:33]log Skeleton
 WAVERULEVARa Skeleton
 times WaveFront
  WAVERULEVARb Skeleton
  WAVERULEVARc WaveFront

[15:48:33]plus WaveFront
 log Skeleton
  WAVERULEVARa Skeleton
  WAVERULEVARb Skeleton
 log WaveFront
  WAVERULEVARa WaveFront
  WAVERULEVARc WaveFront

[15:48:33]New rule for logpower1
[15:48:33]log Skeleton
 WAVERULEVARa Skeleton
 power WaveFront
  WAVERULEVARb Skeleton
  WAVERULEVARc WaveFront

[15:48:33]times WaveFront
 WAVERULEVARc WaveFront
 log Skeleton
  WAVERULEVARa Skeleton
  WAVERULEVARb Skeleton

