[16:30:01]Journal init
[16:30:02]Произошла одна или несколько ошибок.
[16:30:51]New rule for sumassoc1
[16:30:51]plus Skeleton
 plus WaveFront
  WAVERULEVARa WaveFront
  WAVERULEVARb Skeleton
 WAVERULEVARc Skeleton

[16:30:51]plus WaveFront
 WAVERULEVARa WaveFront
 plus Skeleton
  WAVERULEVARb Skeleton
  WAVERULEVARc Skeleton

[16:30:51]New rule for sumassoc2
[16:30:51]plus Skeleton
 WAVERULEVARa Skeleton
 plus WaveFront
  WAVERULEVARb Skeleton
  WAVERULEVARc WaveFront

[16:30:51]plus WaveFront
 plus Skeleton
  WAVERULEVARa Skeleton
  WAVERULEVARb Skeleton
 WAVERULEVARc WaveFront

[16:30:51]New rule for zero1
[16:30:51]plus WaveFront
 WAVERULEVARa Skeleton
 0 WaveFront

[16:30:51]WAVERULEVARa Skeleton

[16:30:51]New rule for suminverse1
[16:30:51]plus WaveFront
 0 Skeleton
 minus WaveFront
  0 WaveFront

[16:30:51]0 Skeleton

[16:30:51]New rule for mulassoc1
[16:30:51]times Skeleton
 WAVERULEVARa Skeleton
 times WaveFront
  WAVERULEVARb Skeleton
  WAVERULEVARc WaveFront

[16:30:51]times WaveFront
 times Skeleton
  WAVERULEVARa Skeleton
  WAVERULEVARb Skeleton
 WAVERULEVARc WaveFront

[16:30:51]New rule for mulassoc2
[16:30:51]times Skeleton
 times WaveFront
  WAVERULEVARa WaveFront
  WAVERULEVARb Skeleton
 WAVERULEVARc Skeleton

[16:30:51]times WaveFront
 WAVERULEVARa WaveFront
 times Skeleton
  WAVERULEVARb Skeleton
  WAVERULEVARc Skeleton

[16:30:51]New rule for one1
[16:30:51]times WaveFront
 WAVERULEVARa Skeleton
 1 WaveFront

[16:30:51]WAVERULEVARa Skeleton

[16:30:51]New rule for mulinverse1
[16:30:51]times WaveFront
 1 Skeleton
 power WaveFront
  1 WaveFront
  -1 WaveFront

[16:30:51]1 Skeleton

[16:30:51]New rule for distrib1
[16:30:51]times Skeleton
 WAVERULEVARa Skeleton
 plus WaveFront
  WAVERULEVARb WaveFront
  WAVERULEVARc Skeleton

[16:30:51]plus WaveFront
 times WaveFront
  WAVERULEVARa WaveFront
  WAVERULEVARb WaveFront
 times Skeleton
  WAVERULEVARa Skeleton
  WAVERULEVARc Skeleton

[16:30:51]New rule for distrib1
[16:30:51]times Skeleton
 WAVERULEVARa Skeleton
 plus WaveFront
  WAVERULEVARb Skeleton
  WAVERULEVARc WaveFront

